Division,WeightClassKg,Place,Name,Team,BodyweightKg,Best3SquatKg,Best3BenchKg,Best3DeadliftKg,TotalKg,Equipment,Event,Sex,BirthDate
Boys,51.71,1,Dashel Burrows,Sharyland Pioneer,46.49,95.25,63.5,99.79,258.55,Single-ply,SBD,M,
Boys,55.79,DQ,Austin Saenz,Sharyland Pioneer,55.52,113.4,,,,Single-ply,SBD,M,
Boys,59.87,1,Victor Vazquez,Sharyland Pioneer,59.74,117.93,68.04,124.74,310.71,Single-ply,SBD,M,
Boys,59.87,DQ,Luis Garcia #9,Sharyland Pioneer,56.25,,,,,Single-ply,SBD,M,
Boys,67.13,1,Patricio Chavez,Mission Sharyland,64.46,215.46,129.27,215.46,560.19,Single-ply,SBD,M,
Boys,67.13,2,Eduardo Ordaz,Mission Veterans Memorial,64.77,124.74,79.38,142.88,347,Single-ply,SBD,M,
Boys,67.13,3,Jimmy Quintero,Mission,65.59,113.4,83.91,127.01,324.32,Single-ply,SBD,M,
Boys,67.13,DQ,Daniel Alaniz,Sharyland Pioneer,65.32,213.19,,,,Single-ply,SBD,M,
Boys,74.84,1,Mario Marquez,Mission,67.86,247.21,129.27,233.6,610.08,Single-ply,SBD,M,
Boys,74.84,2,Rolando Saenz,Mission Sharyland,74.39,213.19,127.01,215.46,555.65,Single-ply,SBD,M,
Boys,74.84,3,Leonardo Perez #1,Mission,72.62,215.46,124.74,195.04,535.24,Single-ply,SBD,M,
Boys,74.84,4,Enrique Ordaz,Mission Veterans Memorial,69.22,127.01,81.65,142.88,351.53,Single-ply,SBD,M,
Boys,82.1,1,Luis De Hoyos,Mission Veterans Memorial,75.21,238.14,120.2,215.46,573.79,Single-ply,SBD,M,
Boys,82.1,2,Jude Jaime,Mission,77.25,165.56,124.74,183.7,474,Single-ply,SBD,M,
Boys,82.1,3,Diego Mercado,Mission Veterans Memorial,80.88,170.1,90.72,142.88,403.7,Single-ply,SBD,M,
Boys,82.1,DQ,Javier Trevino,Mission Sharyland,81.37,204.12,,,,Single-ply,SBD,M,
Boys,89.81,1,Zeke Cuadros,Mission,89.72,238.14,145.15,215.46,598.74,Single-ply,SBD,M,
Boys,89.81,2,Mauricio Galindo,Mission Sharyland,88.77,240.4,156.49,195.04,591.94,Single-ply,SBD,M,
Boys,89.81,3,Anthony Del Angel,Sharyland Pioneer,88.77,192.78,102.06,215.46,510.29,Single-ply,SBD,M,
Boys,99.79,1,Cristian Hernandez #1,Mission,95.39,281.23,136.08,238.14,655.44,Single-ply,SBD,M,
Boys,99.79,2,Francisco Castillo,Mission Veterans Memorial,94.89,204.12,147.42,204.12,555.65,Single-ply,SBD,M,
Boys,99.79,3,Daniel González,Mission Sharyland,95.21,195.04,129.27,179.17,503.49,Single-ply,SBD,M,
Boys,99.79,4,Israel Nicanor,Sharyland Pioneer,99.7,183.7,81.65,183.7,449.06,Single-ply,SBD,M,
Boys,99.79,5,Diego Trevino,Mission Sharyland,93.94,161.03,106.59,174.63,442.25,Single-ply,SBD,M,
Boys,109.77,1,Isaiah Baker,Mission Veterans Memorial,102.78,210.92,111.13,213.19,535.24,Single-ply,SBD,M,
Boys,109.77,2,Edgar Bautista,Sharyland Pioneer,108.18,215.46,136.08,183.7,535.24,Single-ply,SBD,M,
Boys,109.77,3,Camilo Galaviz,Sharyland Pioneer,107.18,167.83,97.52,156.49,421.84,Single-ply,SBD,M,
Boys,109.77,DQ,Diego Ochoa,Mission Sharyland,106.91,,,,,Single-ply,SBD,M,
Boys,124.74,1,Christopher Casiano,Mission Veterans Memorial,110.68,235.87,176.9,222.26,635.03,Single-ply,SBD,M,
Boys,124.74,2,Brandon Alanis,Mission Sharyland,115.03,195.04,102.06,192.78,489.88,Single-ply,SBD,M,
Boys,124.74,3,Ashton Guzman,Mission,113.08,215.46,90.72,165.56,471.74,Single-ply,SBD,M,
Boys,139.71,1,Adalberto Sanchez,Sharyland Pioneer,130.14,213.19,102.06,165.56,480.81,Single-ply,SBD,M,
Boys,139.71,DQ,Nathaniel Villegas,Mission Veterans Memorial,130.95,201.85,108.86,,,Single-ply,SBD,M,
