Sex,WeightClassKg,Name,BirthDate,Division,Equipment,Event,Age,Team,BodyweightKg,Squat1Kg,Squat2Kg,Squat3Kg,Best3SquatKg,Bench1Kg,Bench2Kg,Bench3Kg,Best3BenchKg,Deadlift1Kg,Deadlift2Kg,Deadlift3Kg,Best3DeadliftKg,TotalKg,Place
M,,Sergio Andrés Mares Delgado,,Teen 14-16,Wraps,SBD,14,Teotl powerlifting team,66,-180,180,-185,180,90,100,105,105,140,150,-160,150,435,1
M,,Antonio Guerrero Martínez,,Teen 14-16,Wraps,SBD,16,Teotl powerlifiting team,58.2,100,-115,-115,100,-70,70,-75,70,115,125,134,134,304,2
M,,Elías Sebastián González Pastrana,,Teen 14-16,Wraps,SBD,14,Teotl Powerlifting Team,59.5,-110,110,120,120,50,-55,-55,50,-120,125,140,140,310,3
M,,Rafael Pardo Velázquez,,Teen 14-16,Raw,SBD,15,YMCA,65.5,-80,100,-112.5,100,-50,65,72.5,72.5,85,100,-120,100,272.5,1
M,,Patricio Arroyo Quintero,,Sub-Juniors 17-19,Wraps,SBD,17,Power Sport Gym,82,-195,-195,-195,,112.5,-120,-120,112.5,190,-205,205,205,,DQ
M,,Victor Manuel Hernandez Franco,,Sub-Juniors 17-19,Wraps,SBD,19,YMCA mallorca,83,-135,-140,145,145,95,100,-102.5,100,140,152.5,162.5,162.5,407.5,3
M,,Jesus Emiliano Ojeda Bazan,,Sub-Juniors 17-19,Wraps,SBD,17,SANSON GYM,96.5,180,-190,-195,180,90,-100,-100,90,180,200,-210,200,470,2
M,,Mateo Emanuel Contreras Ramirez,,Sub-Juniors 17-19,Wraps,SBD,19,YMCA Mallorca,81,105,-115,-125,105,-100,-105,-105,,115,130,-145,130,,DQ
M,,Joshua Ruiz Cervantes,,Sub-Juniors 17-19,Wraps,SBD,17,Gato barato,60.1,-160,160,-170,160,80,90,-100,90,175,-180,-180,175,425,1
M,,Víctor Alexander Ramírez Lara,,Sub-Juniors 17-19,Raw,SBD,19,Esthetic Center Gym,77.6,-140,140,150,150,90,100,-110,100,150,160,170,170,420,1
M,,Diego Fabricio Hernández Ugalde,,Sub-Juniors 17-19,Raw,SBD,18,Bulldog's Gym “La Blanca”,63,-130,130,-135,130,-75,75,-77.5,75,140,150,-160,150,355,2
M,,Jorge Gabriel Rubio Camarena,,Sub-Juniors 17-19,Raw,SBD,19,Sanson gym,89,-210,-210,-210,,110,-115,-115,110,200,210,-220,210,,DQ
M,,Jonathan Jesus Guevara Pablo,,Sub-Juniors 17-19,Raw,SBD,19,Equipo hitboys,79,125,-135,-145,125,85,-92.5,92.5,92.5,135,145,-160,145,362.5,3
M,,Manuel Jabalí Mendoza,,Juniors 20-23,Wraps,SBD,23,Team Jabalí,107,240,-250,-255,240,130,-140,140,140,-240,-240,240,240,620,2
M,,Mauro Aguilar Jefte,,Juniors 20-23,Wraps,SBD,20,Valifters,87.1,120,-125,-130,120,75,-80,-80,75,115,130,-140,130,325,6
M,,Carlos Eduardo Ibarra Rosas,,Juniors 20-23,Wraps,SBD,20,La panadería,79.2,-180,-185,190,190,120,-125,-125,120,195,200,210,210,520,3
M,,Joshua Cuevas,,Juniors 20-23,Wraps,SBD,20,Valifters,93,110,115,-130,115,75,85,-92.5,85,155,160,-170,160,360,5
M,,Diego Resendiz Gallardo,,Juniors 20-23,Wraps,SBD,21,Gimnasio,89,-175,-175,-175,,-115,,,,-170,,,,,DQ
M,,Maximiliano Dufoo Castellanos,,Juniors 20-23,Wraps,SBD,20,Mayorca,85,140,145,152.5,152.5,90,100,102.5,102.5,160,172.5,182.5,182.5,437.5,4
M,,Marco Alberto Ortiz Antonio,,Juniors 20-23,Wraps,SBD,22,Tyrant Team La Legion,114.8,-220,-235,240,240,150,155,160,160,200,225,240,240,640,1
M,,Moisés Niniz García,,Masters 40-49,Wraps,SBD,40,Escuela de leones,88.8,190,200,205,205,-110,110,-115,110,190,210,-220,210,525,1
M,,Mario Miguel Gutiérrez López,,Masters 50-59,Raw,SBD,52,Mallorca Ymca,79.5,-130,130,-145,130,125,-132.5,132.5,132.5,120,125,-130,125,387.5,1
F,56,Leslie Vanessa Salazar Campos,,Open,Wraps,SBD,19,Calavera studio,54.1,80,90,-95,90,-30,-35,-35,,90,100,-105,100,,DQ
F,67.5,Olalde Araceli,,Open,Raw,SBD,29,independiente,61,100,105,-112.5,105,55,57.5,-60,57.5,130,132.5,135,135.0,297.5,G
F,60,Evelin Romero Molina,,Open,Wraps,SBD,16,Gimnasio,54.9,70,80,90,90,40,45,-50,45,90,100,110,110,245,2
F,60,Mariana Santiago Martínez,,Open,Wraps,SBD,28,Ymca MALLORCA,57.7,100,-110,110,110,40,-47.5,-52.5,40,105,110,117.5,117.5,267.5,1
F,67.5,Pamela Vargas Núñez,,Open,Wraps,SBD,20,YMCA Mallorca,61.8,-80,-85,87.5,87.5,30,40,45,45,80,120,-130,120,252.5,3
F,67.5,Allison Ruiz López,,Open,Wraps,SBD,26,Strongest Team,66.8,95,105,112.5,112.5,70,-77.5,-77.5,70,110,122.5,-135,122.5,305,2
F,67.5,María Magdalena Espejel Leyva,,Open,Wraps,SBD,42,The Butcher cult,65.9,150,-160,-160,150,55,-60,60,60,-155,-155,-155,,,DQ
F,67.5,Maya Palacios Cáceres,,Open,Wraps,SBD,17,Ymca Mallorca,62,80,-90,-95,80,50,-60,-60,50,70,-100,105,105,235,4
F,67.5,María Margarita Ocaña Guzmán,,Open,Wraps,SBD,21,La panadería,67,125,-132.5,132.5,132.5,60,-67.5,67.5,67.5,-155,155,-160,155,355,1
F,82.5,Patricia Lizbeth Salazar Campos,,Open,Wraps,SBD,32,Calavera studio,75.6,165,175,-182.5,175,60,-65,-65,60,150,160,-165,160,395,1
F,,María Magdalena Espejel Leyva,,Masters 40-49,Wraps,SBD,42,The Butcher cult,65.9,150,-160,-160,150,55,-60,60,60,-155,-155,-155,,,DQ
M,67.5,José Uriel Montes Beltrán,,Open,Wraps,SBD,20,Teotl Powerlifting Team,67.1,170,-175,175,175,-100,110,115,115,170,-175,-175,170,460,1
M,75,Jair De Lucio Mendoza,,Open,Raw,SBD,33,Teotl powerlifting team,74.8,180,190,200,200,130,140,142.5,142.5,190,205,-210,205,547.5,1
M,75,Elias Amiga Levy,,Open,Raw,SBD,28,La comarca,74.3,150,155,-160,155,100,-105,-105,100,200,205,-207.5,205,460,2
M,75,Jhon Jairo Cruz Gómez,,Open,Wraps,SBD,27,teotl powerlifting team,74.6,180,185,190,190,90,95,-100,95,170,175,180,180,465,1
M,75,Emilio Pozos Calderon,,Open,Wraps,SBD,25,YMCA Mallorca,67.5,-80,90,-100,90,70,-75,-75,70,-100,,,,,DQ
M,82.5,Edgar Chavez Galicia,,Open,Raw,SBD,31,rv strength,81,205,220,-230,220,-120,125,-132.5,125,215,-225,-225,215,560,1
M,90,Erick Ivan Tellez Saldierna,,Open,Wraps,SBD,28,La panadería,88.3,210,220,230,230,135,145,150,150,240,-255,-260,240,620,1
M,90,Moisés Niniz García,,Open,Wraps,SBD,40,Escuela de leones,88.8,190,200,205,205,-110,110,-115,110,190,210,-220,210,525,2
M,90,Josué Rise,,Open,Raw,SBD,,,83.5,170,-180,-187.5,170,115,120,-125,120,-200,200,-207.5,200,490,1
M,90,Jetro Isai Aguilar Cruz,,Open,Raw,SBD,24,Valfiters,84.5,150,-160,-160,150,90,-95,-95,90,155,165,175,175,415,2
M,110,Jaír Guzmán Jiménez,,Open,Wraps,SBD,31,Clandestino GYM,107,140,160,-180,160,-130,135,-150,135,180,200,210,210,505,G
M,110,Manuel Jabalí Mendoza,,Open,Wraps,SBD,23,Team Jabalí,107,240,-250,-255,240,130,-140,140,140,-240,-240,240,240,620,2
M,110,Ricardo Godinez Tenorio,,Open,Wraps,SBD,35,TEAM Richie Pelon,104.6,-240,245,-250,245,-160,160,-170,160,240,245,250,250,655,1
M,140,Alejandro Cedillo Islas,,Open,Raw,SBD,39,Esthetic Center Gym,130,220,-225,-225,220,190,200,-210,200,-250,-260,-260,,,DQ
M,125,Rogelio Andrés Cortés Jiménez,,Open,Wraps,SBD,27,Tyrant Team La Legion,120,220,-240,-242.5,220,-155,-155,155,155,220,-230,-240,220,595,1
