Division,WeightClassKg,Place,Name,Team,BodyweightKg,Best3SquatKg,Best3BenchKg,Best3DeadliftKg,TotalKg,Equipment,Event,Sex
Boys,51.71,1,Michael Mitchell,San Antonio Southside,51.53,165.56,86.18,192.78,444.52,Single-ply,SBD,M
Boys,55.79,2,Nicolas Garcia,San Antonio Southside,51.89,149.69,79.38,158.76,387.82,Single-ply,SBD,M
Boys,51.71,3,Caleb Vera,Poteet,47.54,120.2,63.5,127.01,310.71,Single-ply,SBD,M
Boys,51.71,4,Isaac Trejo,San Marcos,50.53,70.31,49.9,106.59,226.8,Single-ply,SBD,M
Boys,55.79,5,Clayton Hutto,San Marcos,51.89,70.31,43.09,90.72,204.12,Single-ply,SBD,M
Boys,51.71,DQ,Aaron Sanchez,Poteet,51.26,,,,,Single-ply,SBD,M
Boys,55.79,1,Mario Saldivar,Laredo Alexander,55.52,167.83,95.25,167.83,430.91,Single-ply,SBD,M
Boys,55.79,2,Eric Ramirez,San Marcos,53.98,133.81,68.04,161.03,362.87,Single-ply,SBD,M
Boys,55.79,3,Maverick Graham,Lytle,54.07,136.08,70.31,142.88,349.27,Single-ply,SBD,M
Boys,55.79,4,Mason Levar,Marion,53.25,122.47,79.38,145.15,347,Single-ply,SBD,M
Boys,55.79,5,Seth Aguinaga,Lytle,55.52,113.4,58.97,136.08,308.44,Single-ply,SBD,M
Boys,55.79,6,Zuri Chairez,San Marcos,55.52,81.65,54.43,124.74,260.82,Single-ply,SBD,M
Boys,67.13,1,AJ Salas,San Antonio Southside,60.06,179.17,113.4,176.9,469.47,Single-ply,SBD,M
Boys,67.13,2,Desmond Castillo,San Antonio Southside,60.06,188.24,120.2,156.49,464.93,Single-ply,SBD,M
Boys,59.87,3,Jose Trevino,San Antonio Southside,59.15,197.31,88.45,165.56,451.32,Single-ply,SBD,M
Boys,59.87,4,Raul Garcia,Cotulla,59.15,156.49,97.52,183.7,437.72,Single-ply,SBD,M
Boys,59.87,5,Manual Saldana,Natalia,59.06,163.29,70.31,183.7,417.3,Single-ply,SBD,M
Boys,59.87,6,Jacob Gonzales,Floresville,57.15,138.35,77.11,147.42,362.87,Single-ply,SBD,M
Boys,67.13,7,Joe Anthony Oliva,Poteet,60.06,122.47,65.77,149.69,337.93,Single-ply,SBD,M
Boys,59.87,8,Tristan Butler,Bandera,58.97,122.47,70.31,140.61,333.39,Single-ply,SBD,M
Boys,59.87,9,Josh Banda,San Marcos,57.7,106.59,72.57,149.69,328.85,Single-ply,SBD,M
Boys,59.87,10,Eric Guerrero,San Marcos,57.33,106.59,65.77,122.47,294.84,Single-ply,SBD,M
Boys,59.87,11,David Webster,San Antonio Southside,56.97,88.45,49.9,131.54,269.89,Single-ply,SBD,M
Boys,67.13,1,Juan Medina,Floresville,65.68,195.04,120.2,192.78,508.02,Single-ply,SBD,M
Boys,67.13,2,Kade Lopez,San Antonio Southside,67.13,199.58,102.06,192.78,494.42,Single-ply,SBD,M
Boys,67.13,3,Alex Ortiz #3,Gonzales,65.14,190.51,108.86,181.44,480.81,Single-ply,SBD,M
Boys,67.13,4,Jon Daigle,Marion,65.14,149.69,90.72,142.88,383.29,Single-ply,SBD,M
Boys,67.13,5,Jesse Zimmel,Bandera,63.78,117.93,72.57,145.15,335.66,Single-ply,SBD,M
Boys,67.13,6,Jordan Owens,San Marcos,64.77,108.86,72.57,138.35,319.78,Single-ply,SBD,M
Boys,67.13,7,John Martinez,San Marcos,62.41,86.18,58.97,120.2,265.35,Single-ply,SBD,M
Boys,67.13,DQ,Harley Contreras,Lytle,62.14,88.45,,,,Single-ply,SBD,M
Boys,74.84,DQ,Jimmy Vega,San Antonio Southside,67.31,,,,,Single-ply,SBD,M
Boys,74.84,1,Javier Sanchez,San Antonio Southside,74.21,210.92,131.54,197.31,539.77,Single-ply,SBD,M
Boys,74.84,2,Calvin Starnes,Bandera,71.4,197.31,113.4,208.65,519.36,Single-ply,SBD,M
Boys,74.84,3,Dustin Del Toro,Cotulla,74.66,197.31,104.33,215.46,517.1,Single-ply,SBD,M
Boys,74.84,4,Alex Paredes,Natalia,74.84,226.8,90.72,192.78,510.29,Single-ply,SBD,M
Boys,74.84,5,Kevin Hernandez,Floresville,71.67,185.97,104.33,167.83,458.13,Single-ply,SBD,M
Boys,74.84,6,Edher Nava,Marion,71.4,156.49,99.79,156.49,412.77,Single-ply,SBD,M
Boys,74.84,7,Joe Ponce,Poteet,72.57,147.42,79.38,156.49,383.29,Single-ply,SBD,M
Boys,74.84,8,James Mowen,San Marcos,71.21,120.2,86.18,154.22,360.61,Single-ply,SBD,M
Boys,74.84,9,Collin Ramos,San Marcos,70.4,122.47,77.11,154.22,353.8,Single-ply,SBD,M
Boys,74.84,10,Juergen Lapham,Center Point,67.77,124.74,65.77,136.08,326.59,Single-ply,SBD,M
Boys,74.84,11,Michael Vargas,San Marcos,70.49,97.52,70.31,138.35,306.17,Single-ply,SBD,M
Boys,74.84,DQ,Nick Cervantez,Poteet,74.66,,,,,Single-ply,SBD,M
Boys,82.1,1,Raynard Taylor,Comal Canyon,82.1,283.5,179.17,269.89,732.55,Single-ply,SBD,M
Boys,82.1,2,Stefen Villanueva,Floresville,75.39,206.38,124.74,206.38,537.51,Single-ply,SBD,M
Boys,89.81,3,Jaime Tellez,Gonzales,82.33,199.58,113.4,213.19,526.17,Single-ply,SBD,M
Boys,82.1,4,Nick Gonzales,Floresville,79.2,183.7,117.93,183.7,485.34,Single-ply,SBD,M
Boys,82.1,5,Prudy Calderon,San Marcos,81.01,174.63,102.06,199.58,476.27,Single-ply,SBD,M
Boys,82.1,6,Isaiah Manzanares,San Marcos,80.38,161.03,102.06,190.51,453.59,Single-ply,SBD,M
Boys,82.1,7,Tim Mendoza,San Marcos,79.38,131.54,79.38,142.88,353.8,Single-ply,SBD,M
Boys,82.1,8,Israel Romero,San Marcos,75.39,113.4,79.38,131.54,324.32,Single-ply,SBD,M
Boys,82.1,9,Myles Riggs,Marion,76.75,106.59,56.7,136.08,299.37,Single-ply,SBD,M
Boys,82.1,DQ,Adam Garcia #2,San Antonio Southside,81.74,,,,,Single-ply,SBD,M
Boys,89.81,1,Raul Cantu,San Antonio Southside,85.91,208.65,140.61,199.58,548.85,Single-ply,SBD,M
Boys,89.81,2,Trent Schauer,Gonzales,86.73,204.12,131.54,213.19,548.85,Single-ply,SBD,M
Boys,89.81,3,Paul Castro,Lytle,87.63,208.65,120.2,210.92,539.77,Single-ply,SBD,M
Boys,89.81,4,Hagan Brown,Floresville,84.91,204.12,133.81,195.04,532.97,Single-ply,SBD,M
Boys,89.81,5,Josh Roberts #2,Floresville,87.82,210.92,117.93,201.85,530.7,Single-ply,SBD,M
Boys,99.79,6,Jesse Ramirez #3,Floresville,89.99,192.78,120.2,215.46,528.44,Single-ply,SBD,M
Boys,89.81,7,Zach Nelson,Comal Canyon,88,199.58,129.27,172.37,501.22,Single-ply,SBD,M
Boys,89.81,8,Roy Trevino,Poteet,88.18,188.24,115.67,190.51,494.42,Single-ply,SBD,M
Boys,89.81,9,Jonas Nava,San Marcos,89.63,176.9,90.72,210.92,478.54,Single-ply,SBD,M
Boys,89.81,10,Julian Martinez,Natalia,89.36,188.24,97.52,190.51,476.27,Single-ply,SBD,M
Boys,99.79,11,Ethan Chapa,Center Point,89.9,181.44,108.86,176.9,467.2,Single-ply,SBD,M
Boys,89.81,12,Rene Velasquez,San Marcos,83.55,172.37,115.67,165.56,453.59,Single-ply,SBD,M
Boys,89.81,13,Ryan Bechtel,Marion,89.63,181.44,83.91,188.24,453.59,Single-ply,SBD,M
Boys,89.81,14,Josh Cooper,Center Point,83.64,170.1,108.86,167.83,446.79,Single-ply,SBD,M
Boys,89.81,15,Cole Doerr,Marion,87.91,158.76,104.33,179.17,442.25,Single-ply,SBD,M
Boys,89.81,16,Jacob Doerr,Marion,87.91,147.42,102.06,163.29,412.77,Single-ply,SBD,M
Boys,89.81,17,Josiah Passarell,San Marcos,87.36,147.42,88.45,158.76,394.63,Single-ply,SBD,M
Boys,89.81,18,Gavin Hernandez,San Marcos,86.55,120.2,88.45,161.03,369.68,Single-ply,SBD,M
Boys,99.79,1,Jesus Moron,San Antonio Southside,96.43,258.55,147.42,256.28,662.24,Single-ply,SBD,M
Boys,99.79,2,Aaron Puga,Beeville Jones,94.71,247.21,129.27,224.53,601.01,Single-ply,SBD,M
Boys,99.79,3,Tyler Crisp,Poteet,97.25,244.94,124.74,231.33,601.01,Single-ply,SBD,M
Boys,99.79,4,Nick Delgado,Pleasanton,91.81,233.6,151.95,204.12,589.67,Single-ply,SBD,M
Boys,99.79,5,Jp Rodriguez,Pleasanton,96.52,215.46,136.08,235.87,587.4,Single-ply,SBD,M
Boys,99.79,6,Jacob Thomas,Floresville,94.8,229.06,122.47,176.9,528.44,Single-ply,SBD,M
Boys,99.79,7,Isaac Oviedo,San Antonio Southside,93.17,208.65,117.93,199.58,526.17,Single-ply,SBD,M
Boys,99.79,8,Josh Duran,Marion,97.16,188.24,117.93,206.38,512.56,Single-ply,SBD,M
Boys,99.79,9,Ricardo Garcia,Comal Canyon,99.06,185.97,90.72,197.31,474,Single-ply,SBD,M
Boys,99.79,10,Hunter Thompson,Comal Canyon,92.17,179.17,97.52,192.78,469.47,Single-ply,SBD,M
Boys,99.79,11,Joshua Heiser,Comal Canyon,97.61,183.7,97.52,183.7,464.93,Single-ply,SBD,M
Boys,99.79,12,Trevor Hopkins,Comal Canyon,96.07,163.29,104.33,172.37,439.98,Single-ply,SBD,M
Boys,99.79,13,Jorge Riojas,San Marcos,95.25,149.69,104.33,176.9,430.91,Single-ply,SBD,M
Boys,99.79,14,Travis McGehee,Center Point,95.25,156.49,90.72,172.37,419.57,Single-ply,SBD,M
Boys,99.79,15,Evan Sierra,San Marcos,94.71,124.74,77.11,140.61,342.46,Single-ply,SBD,M
Boys,124.74,1,Rafael Herrejon,Comal Canyon,109.95,269.89,163.29,224.53,657.71,Single-ply,SBD,M
Boys,109.77,2,Corey Opiela,Floresville,107.32,238.14,151.95,265.35,655.44,Single-ply,SBD,M
Boys,109.77,3,Kyle Wilson #7,Bandera,107.41,249.48,142.88,226.8,619.15,Single-ply,SBD,M
Boys,109.77,4,Vicente Barrera,San Antonio Southside,104.14,235.87,136.08,188.24,560.19,Single-ply,SBD,M
Boys,109.77,5,Tyler Leyva,Floresville,105.96,199.58,127.01,199.58,526.17,Single-ply,SBD,M
Boys,109.77,6,Bernard Aguilar,Poteet,100.7,213.19,97.52,158.76,469.47,Single-ply,SBD,M
Boys,109.77,7,Oliver Terrazos,Comal Canyon,109.59,185.97,97.52,161.03,444.52,Single-ply,SBD,M
Boys,109.77,8,Riley Garcia,Poteet,100.79,181.44,92.99,163.29,437.72,Single-ply,SBD,M
Boys,124.74,1,Oscar Flores,Comal Canyon,117.21,292.57,174.63,256.28,723.48,Single-ply,SBD,M
Boys,124.74,2,Jonathan Ricks,Pleasanton,116.94,274.42,172.37,222.26,669.05,Single-ply,SBD,M
Boys,124.74,3,Hector Valadez,San Antonio Southside,117.93,251.74,176.9,213.19,641.83,Single-ply,SBD,M
Boys,124.74,4,Eric Perez,Pleasanton,120.84,249.48,167.83,195.04,612.35,Single-ply,SBD,M
Boys,124.74,5,Sonny Pacheco,Natalia,114.85,231.33,142.88,235.87,610.08,Single-ply,SBD,M
Boys,124.74,6,Paul Lozano,Poteet,119.39,204.12,142.88,181.44,528.44,Single-ply,SBD,M
Boys,124.74+,7,Josh Ripple,Bandera,124.92,165.56,108.86,151.95,426.38,Single-ply,SBD,M
Boys,124.74,8,Elijah Terrazos,Comal Canyon,115.85,145.15,92.99,102.06,340.19,Single-ply,SBD,M
Boys,124.74,DQ,Sisto Pacheco,Pleasanton,113.49,,,,,Single-ply,SBD,M
Boys,124.74+,1,Leo Martinez,Center Point,126.92,249.48,154.22,226.8,630.49,Single-ply,SBD,M
Boys,124.74+,2,Andrew Bachman,Bandera,141.43,240.4,167.83,222.26,630.49,Single-ply,SBD,M
Boys,124.74+,3,Joey Alvarado,Poteet,129.64,197.31,120.2,183.7,501.22,Single-ply,SBD,M
Boys,124.74+,4,Nick Dela Rosa,San Marcos,137.8,158.76,81.65,181.44,421.84,Single-ply,SBD,M
Boys,124.74+,5,Elliot Gilliam,Poteet,133.08,142.88,102.06,163.29,408.23,Single-ply,SBD,M
