Name,Country,Sex,Division,BodyweightKg,WeightClassKg,BirthYear,Squat1Kg,Squat2Kg,Squat3Kg,Best3SquatKg,Bench1Kg,Bench2Kg,Bench3Kg,Best3BenchKg,Deadlift1Kg,Deadlift2Kg,Deadlift3Kg,Best3DeadliftKg,TotalKg,Event,Equipment,Place
Tám Nguyen #2,USA,F,Juniors,45.91,47,1995,85,92.5,95,95,47.5,-52.5,52.5,52.5,105,-112.5,-112.5,105,252.5,SBD,Raw,1
Maranda Geist,USA,F,Juniors,51.06,52,1993,107.5,115,-122.5,115,57.5,62.5,65,65,122.5,130,140,140,320,SBD,Raw,1
Lutchmi Sookram,Trinidad and Tobago,F,Juniors,50.11,52,1997,82.5,-92.5,-92.5,82.5,42.5,47.5,-50,47.5,117.5,122.5,130,130,260,SBD,Raw,2
Gabrielle Mamani,USA,F,Juniors,56.15,57,1994,125,132.5,-140,132.5,60,67.5,75,75,-165,167.5,170.5,170.5,378,SBD,Raw,1
Ariel Bulmash,USA,F,Juniors,60.44,63,1995,110,117.5,-125,117.5,90,92.5,-97.5,92.5,150,160,-165,160,370,SBD,Raw,1
Lindsey Raker,USA,F,Juniors,71.47,72,1995,122.5,132.5,-140,132.5,72.5,77.5,80,80,162.5,170,175,175,387.5,SBD,Raw,1
Diana Lainez,USA,F,Juniors,70.9,72,1993,120,130,137.5,137.5,80,85,-87.5,85,70,,,70,292.5,SBD,Raw,2
Rebecka Cook,USA,F,Juniors,119.93,84+,1993,137.5,147.5,160,160,62.5,67.5,72.5,72.5,142.5,155,162.5,162.5,395,SBD,Raw,1
Adriana Moreno Mena,Costa Rica,F,Masters 1,51.17,52,1976,110,-117.5,-117.5,110,60,62.5,-65,62.5,115,120,-125,120,292.5,SBD,Raw,1
Winnie Abramson,USA,F,Masters 1,50.61,52,1970,95,-102.5,-102.5,95,50,52.5,-55,52.5,117.5,-122.5,-122.5,117.5,265,SBD,Raw,2
Dana Singleton,USA,F,Masters 1,68.71,72,1975,122.5,130,137.5,137.5,65,70,75,75,145,155,160,160,372.5,SBD,Raw,1
Allison Snead,USA,F,Masters 1,94.59,84+,1975,165,177.5,182.5,182.5,85,-90,90,90,165,175,187.5,187.5,460,SBD,Raw,1
Rhonda Jones,USA,F,Masters 2,56.21,57,1964,75,-80,-80,75,-42.5,-42.5,-42.5,,97.5,107.5,120,120,,SBD,Raw,DQ
Joanne Craig,USA,F,Masters 2,62.19,63,1961,122.5,127.5,-132.5,127.5,57.5,60,-63.5,60,-125,125,-130,125,312.5,SBD,Raw,1
Karen Maxwell,Canada,F,Masters 2,62.59,63,1965,85,92.5,95,95,45,50,52.5,52.5,-110,115,-120,115,262.5,SBD,Raw,2
Suzanne LaForge,USA,F,Masters 2,68.98,72,1959,135,142.5,-148,142.5,70,77.5,-80.5,77.5,175,-177.5,-192.5,175,395,SBD,Raw,1
Lee Lipsitz,USA,F,Masters 2,71.62,72,1964,125,-137.5,-142.5,125,67.5,72.5,75,75,147.5,157.5,-162.5,157.5,357.5,SBD,Raw,2
Laura Reagle,USA,F,Masters 2,80.17,84,1964,130,137.5,142.5,142.5,65,70,-72.5,70,147.5,155,162.5,162.5,375,SBD,Raw,1
Patricia Kroken,USA,F,Masters 3,82.74,84,1947,77.5,82.5,-87.5,82.5,30,32.5,-35,32.5,92.5,97.5,102.5,102.5,217.5,SBD,Raw,1
Regina Hackney,USA,F,Masters 4,82.16,84,1939,70,-75,75,75,47.5,50,-52.5,50,112.5,-117.5,-117.5,112.5,237.5,SBD,Raw,1
Juanita Najera #1,USA,F,Open,51.71,52,1981,112.5,-120,123,123,67.5,73,75,75,125,135,-142.5,135,333,SBD,Raw,1
Brittney Bergen,Canada,F,Open,56.86,57,1988,127.5,135,142.5,142.5,77.5,82.5,-85.5,82.5,142.5,150,160,160,385,SBD,Raw,1
Alice Zheng,USA,F,Open,61.75,63,1992,-145,145,-155,145,77.5,-82.5,-82.5,77.5,165,175,-182.5,175,397.5,SBD,Raw,1
Miriam Schwabe,Canada,F,Open,59.59,63,1991,120,130,137.5,137.5,67.5,75,77.5,77.5,140,152.5,-157.5,152.5,367.5,SBD,Raw,2
Nora Montilla,Costa Rica,F,Open,63,63,1977,65,70,75,75,35,-40,40,40,65,72.5,80,80,195,SBD,Raw,3
Ericka Céspedes Marozzi,Costa Rica,F,Open,71,72,1984,125,130,135,135,77.5,82.5,-87.5,82.5,130,137.5,142.5,142.5,360,SBD,Raw,2
Syanna Andrews,Trinidad and Tobago,F,Open,69.32,72,1992,125,142.5,150,150,62.5,67.5,-72.5,67.5,135,-147.5,-147.5,135,352.5,SBD,Raw,3
Tiffiny Wohlers,USA,F,Open,81.11,84,1991,142.5,160,172.5,172.5,70,80,90,90,180,195,200,200,462.5,SBD,Raw,1
Melissa Copeland,USA,F,Open,107.85,84+,1977,192.5,202.5,207.5,207.5,-105,105,107.5,107.5,197.5,210,-220,210,525,SBD,Raw,1
Joan Báez,Puerto Rico,F,Open,97.03,84+,1986,140,147.5,152.5,152.5,87.5,95,-100,95,147.5,152.5,157.5,157.5,405,SBD,Raw,3
Kayleigh Tokash,USA,F,Sub-Juniors,55.54,57,1998,85,92.5,97.5,97.5,42.5,47.5,-50,47.5,102.5,110,-115,110,255,SBD,Raw,1
Remington Trewyn,USA,F,Sub-Juniors,61.77,63,2000,105,115,-120,115,60,62.5,65,65,115,122.5,125,125,305,SBD,Raw,1
Bryana Washington,USA,F,Sub-Juniors,67.87,72,2001,102.5,110,-115,110,52.5,57.5,-62.5,57.5,127.5,-135,135,135,302.5,SBD,Raw,1
Abigail Saunders,USA,F,Sub-Juniors,67.65,72,2000,100,-107.5,107.5,107.5,42.5,45,-47.5,45,122.5,130,-140.5,130,282.5,SBD,Raw,2
Khemarintr Suwanchote,USA,M,Juniors,58.64,59,1993,102.5,112.5,122.5,122.5,107.5,110,115,115,147.5,170,192.5,192.5,430,SBD,Raw,1
Slade Woodard,USA,M,Juniors,57.77,59,1994,95,-105,110,110,-72.5,72.5,-77.5,72.5,165,175,-190,175,357.5,SBD,Raw,2
Sawyer Yandell,USA,M,Juniors,65.54,66,1994,220,225,230.5,230.5,105,115,120,120,227.5,245,-262.5,245,595.5,SBD,Raw,1
Promepetch,USA,M,Juniors,64.81,66,1994,135,145,-155,145,95,102.5,107.5,107.5,185,200,210,210,462.5,SBD,Raw,2
Ben Langley,Canada,M,Juniors,73.53,74,1993,230,240,-245,240,140,147.5,-150,147.5,-250,250,-260,250,637.5,SBD,Raw,1
Marcus Bell,USA,M,Juniors,82.59,83,1995,227.5,237.5,242.5,242.5,155,157.5,160,160,250,-255,-265,250,652.5,SBD,Raw,1
Landy Phillips,USA,M,Juniors,82.63,83,1994,210,217.5,-222.5,217.5,147.5,157.5,162.5,162.5,245,-252.5,252.5,252.5,632.5,SBD,Raw,2
Dyami Isles,US Virgin Islands,M,Juniors,82.56,83,1996,-175,175,187.5,187.5,100,105,110,110,182.5,192.5,200,200,497.5,SBD,Raw,3
Jorge López,Puerto Rico,M,Juniors,77.97,83,1997,155,165,170,170,92.5,97.5,-102.5,97.5,-182.5,-182.5,182.5,182.5,450,SBD,Raw,4
Chance Mitchell #1,USA,M,Juniors,92.12,93,1994,240,252.5,265,265,145,152.5,157.5,157.5,280,292.5,305,305,727.5,SBD,Raw,1
Rafael González,Puerto Rico,M,Juniors,88.27,93,1997,190,197.5,202.5,202.5,125,135,142.5,142.5,215,225,-237.5,225,570,SBD,Raw,2
Rondel Hunte,Trinidad and Tobago,M,Juniors,102.44,105,1996,255,267.5,277.5,277.5,165,175,177.5,177.5,300,315,-332.5,315,770,SBD,Raw,1
Yavniel Yatali,Trinidad and Tobago,M,Juniors,101.31,105,1995,217.5,240,257.5,257.5,155,165,175,175,255,280,-300,280,712.5,SBD,Raw,2
Kam Hughes,Canada,M,Juniors,102.81,105,1993,230,247.5,255,255,150,-157.5,-157.5,150,265,280,-300,280,685,SBD,Raw,3
Gabriel Nuñez,Puerto Rico,M,Juniors,100.45,105,1997,165,-172.5,-175,165,85,90,-92.5,90,-180,185,-192.5,185,440,SBD,Raw,4
José Rosario #3,Puerto Rico,M,Juniors,110.25,120,,152.5,-160,-162.5,152.5,85,-90,-90,85,195,202.5,-210,202.5,440,SBD,Raw,1
Daniel García #1,Puerto Rico,M,Juniors,129.05,120+,1993,205,215,225,225,145,155,157.5,157.5,215,225,230,230,612.5,SBD,Raw,1
Donald Bigham,USA,M,Masters 1,82.11,83,1972,242.5,257.5,-272.5,257.5,122.5,142.5,150,150,250,265,282.5,282.5,690,SBD,Raw,1
John Alan Reese,USA,M,Masters 1,142.85,120+,1969,-280,280,315,315,162.5,172.5,175,175,250,-262.5,-272.5,250,740,SBD,Raw,1
Damian Fronzaglia,USA,M,Masters 2,73.13,74,1965,147.5,162.5,175,175,165,175.5,179,179,175,212.5,-217.5,212.5,566.5,SBD,Raw,1
Larry Maile,USA,M,Masters 2,82.64,83,1958,175,190,-197.5,190,135,145,152.5,152.5,185,200,215,215,557.5,SBD,Raw,1
Ronald Walker,US Virgin Islands,M,Masters 2,80.73,83,1959,145,150,-160,150,115,120,-130,120,182.5,207.5,220,220,490,SBD,Raw,2
Steven Crane #1,Puerto Rico,M,Masters 2,94.89,105,1962,190,205,210,210,137.5,142.5,147.5,147.5,227.5,240,-250,240,597.5,SBD,Raw,1
Alex Galant,USA,M,Masters 3,57.97,59,1947,100,112.5,117.5,117.5,40,45,50,50,115,130,137.5,137.5,305,SBD,Raw,1
Miguel López #1,Puerto Rico,M,Masters 3,72.5,74,1947,112.5,125,132.5,132.5,90,97.5,,97.5,150,160,-170.5,160,390,SBD,Raw,1
John LaFlamme,USA,M,Masters 3,82.52,83,1950,175,185,187.5,187.5,97.5,105,-107.5,105,220,232.5,240,240,532.5,SBD,Raw,1
Bruce Barry,USA,M,Masters 3,103.82,105,,200,217.5,-231,217.5,105,-117.5,-117.5,105,200,-220,220,220,542.5,SBD,Raw,1
Bill Stevens,Canada,M,Masters 3,109.67,120,1947,170,180,187.5,187.5,115,125,-127.5,125,180,195,210,210,522.5,SBD,Raw,1
Bill Helmich,USA,M,Masters 4,104.58,105,1942,105,115,127.5,127.5,97.5,107.5,-116,107.5,180,200,-216,200,435,SBD,Raw,1
Alfred Jong,Canada,M,Open,58.76,59,1984,157.5,167.5,172.5,172.5,95,105,110,110,195,210,222.5,222.5,505,SBD,Raw,1
Jesse Moores,Canada,M,Open,65.17,66,1992,200,215,-222.5,215,130,137.5,145.5,145.5,225,240,250,250,610.5,SBD,Raw,1
Adrian Knox,Trinidad and Tobago,M,Open,73.5,74,1986,222.5,240,-260.5,240,120,130,-137.5,130,235,255,265,265,635,SBD,Raw,1
Krystan Hosein,Trinidad and Tobago,M,Open,72.21,74,1987,205,-217.5,-220,205,-130,135,-137.5,135,255,265,-270,265,605,SBD,Raw,2
Esteban Castro Arias,Costa Rica,M,Open,73.3,74,1987,195,-207.5,207.5,207.5,115,-120,-120,115,210,220,227.5,227.5,550,SBD,Raw,3
Francisco Lara Umaña,Costa Rica,M,Open,81.94,83,1979,-175,-175,-175,,130,-135,-135,130,-192.5,,,,,SBD,Raw,DQ
Hollis Coker,Trinidad and Tobago,M,Open,77.93,83,1992,182.5,190,195,195,117.5,122.5,-130,122.5,260,277.5,282.5,282.5,600,SBD,Raw,2
Alexis Guzmán #1,Puerto Rico,M,Open,81.3,83,1986,180,192.5,200,200,100,107.5,112.5,112.5,220,230,240,240,552.5,SBD,Raw,3
Lorenzo Donastorg,US Virgin Islands,M,Open,81.9,83,1983,-155,155,175,175,120,132.5,140,140,165,185,192.5,192.5,507.5,SBD,Raw,4
Jason Kaplan,USA,M,Open,89.97,93,1984,215,230,240,240,147.5,157.5,160,160,230,245,-255,245,645,SBD,Raw,1
Kevin Ramírez Vindas,Costa Rica,M,Open,92.49,93,1990,210,-220,230,230,175,-180,-180,175,215,235,-252.5,235,640,SBD,Raw,2
Anthony Keith,Trinidad and Tobago,M,Open,90.69,93,1992,180,195,210,210,115,122.5,130,130,215,237.5,250,250,590,SBD,Raw,3
Matt Kiley,USA,M,Open,92.42,93,1979,165,187.5,195,195,122.5,132.5,140,140,190,212.5,-227.5,212.5,547.5,SBD,Raw,5
Leon Brown,Canada,M,Open,102.79,105,1966,272.5,-287.5,-287.5,272.5,205,215,-223.5,215,200,225,250,250,737.5,SBD,Raw,2
Michael Soya,USA,M,Open,104.4,105,1990,235,250,262.5,262.5,167.5,177.5,185,185,252.5,267.5,-287.5,267.5,715,SBD,Raw,3
Preston Turner #1,USA,M,Open,119.4,120,1992,300,325,340,340,225,240,-247.5,240,272.5,292.5,302.5,302.5,882.5,SBD,Raw,1
Carlos Manuel Campos Murillo,Costa Rica,M,Open,119.19,120,1979,275,300,-317.5,300,170,-180,180,180,300,320,-343.5,320,800,SBD,Raw,2
Garrett Cartwright-Bentley,Canada,M,Open,123.97,120+,1988,275,292.5,300,300,177.5,190,195,195,270,280,287.5,287.5,782.5,SBD,Raw,1
John Boyd,Canada,M,Open,135.12,120+,1984,260,267.5,272.5,272.5,177.5,182.5,187.5,187.5,280,300,-317.5,300,760,SBD,Raw,2
Steven Gassert,USA,M,Sub-Juniors,57.85,59,2000,135,142.5,147.5,147.5,100,110,115.5,115.5,145,155,162.5,162.5,425.5,SBD,Raw,1
Timothy Miller,USA,M,Sub-Juniors,65,66,1998,130,142.5,-152.5,142.5,92.5,97.5,102.5,102.5,165,175,180,180,425,SBD,Raw,1
Kieron Samaroo,Trinidad and Tobago,M,Sub-Juniors,65.49,66,1998,125,-130,137.5,137.5,80,92.5,-102.5,92.5,155,162.5,182.5,182.5,412.5,SBD,Raw,2
William Cole,USA,M,Sub-Juniors,88.78,93,1998,162.5,172.5,180,180,105,115,-125,115,182.5,197.5,215,215,510,SBD,Raw,1
Manuel Bermúdez,Puerto Rico,M,Sub-Juniors,103.45,105,1999,180,190,202.5,202.5,92.5,100,105,105,200,210,-215,210,517.5,SBD,Raw,1
Tyler David,USA,M,Sub-Juniors,124.01,120+,1999,177.5,190,197.5,197.5,110,117.5,125,125,172.5,185,192.5,192.5,515,SBD,Raw,1
María Luisa Vásquez,Puerto Rico,F,Open,45.36,47,1983,170,175,-178,175,95,100,101.5,101.5,152.5,160,-163,160,436.5,SBD,Single-ply,1
Frances Báez,Puerto Rico,F,Open,51.05,52,1988,140,-147.5,-147.5,140,70,75,-80,75,-152.5,152.5,-170,152.5,367.5,SBD,Single-ply,1
Mariselys Chaparro,Puerto Rico,F,Open,57.37,63,1982,155,165,-170,165,87.5,-92.5,92.5,92.5,147.5,157.5,162.5,162.5,420,SBD,Single-ply,1
Genesse Caldero,Puerto Rico,F,Open,62.9,63,1985,155,-162.5,-162.5,155,90,-95,97.5,97.5,155,-165,-165,155,407.5,SBD,Single-ply,3
Andrea Smith,Guyana,F,Open,60.4,63,1984,135,-147.5,-147.5,135,62.5,67.5,-72.5,67.5,125,127.5,132.5,132.5,335,SBD,Single-ply,5
Ladys Burgos,Puerto Rico,F,Open,71.68,72,1989,170,-177.5,177.5,177.5,85,90,-95,90,160,-167.5,170,170,437.5,SBD,Single-ply,1
Felicia John,US Virgin Islands,F,Open,71.94,72,1975,97.5,100,-105,100,57.5,-62.5,65,65,140,150,155,155,320,SBD,Single-ply,3
J'Kiwa Goodwin,US Virgin Islands,F,Open,106.43,84+,1982,-105,-105,-105,,50,-55,62.5,62.5,132.5,140,147.5,147.5,,SBD,Single-ply,DQ
Norma Nieves,Puerto Rico,F,Open,84.57,84+,1971,210,225,-237.5,225,125,135,145,145,-195,195,-205,195,565,SBD,Single-ply,1
Courtney Mills,US Virgin Islands,F,Open,120.06,84+,1983,102.5,115,117.5,117.5,-52.5,52.5,55,55,102.5,105,115,115,287.5,SBD,Single-ply,3
Jordan Whipple,USA,F,Juniors,56.11,57,1997,-170,-172.5,172.5,172.5,77.5,82.5,-85,82.5,155,172.5,182.5,182.5,437.5,SBD,Single-ply,1
Juliana Rivera,Puerto Rico,F,Juniors,52.71,57,1997,125,-127.5,127.5,127.5,65,-70,-70,65,135,142.5,147.5,147.5,340,SBD,Single-ply,2
Giovanna Ortega,USA,F,Juniors,61.42,63,1994,-182.5,-190,190,190,95,-97.5,97.5,97.5,162.5,172.5,180,180,467.5,SBD,Single-ply,1
Frances Mora,Puerto Rico,F,Juniors,69.53,72,1997,150,157.5,165,165,80,-85,85,85,140,150,-155,150,400,SBD,Single-ply,1
Kristzia Nieves,Puerto Rico,F,Juniors,67.34,72,1996,-132.5,-135,135,135,75,-80,-80,75,-140,140,-145,140,350,SBD,Single-ply,2
Lacey Winters,USA,F,Juniors,81.74,84,1997,167.5,175,185,185,85,92.5,97.5,97.5,185,197.5,207.5,207.5,490,SBD,Single-ply,1
Delicia Garza,USA,F,Juniors,95.91,84+,1996,-187.5,-187.5,-187.5,,60,-125,,60,-195,-195,-195,,,SBD,Single-ply,DQ
Priscilla Ribic,USA,F,Masters 1,69.46,72,1972,-217.5,-217.5,217.5,217.5,120,130,140,140,225,235,-250,235,592.5,SBD,Single-ply,1
Sarah Bohlen,USA,F,Masters 1,71.53,72,1969,-135,142.5,147.5,147.5,52.5,57.5,-62.5,57.5,155,165,-172.5,165,370,SBD,Single-ply,2
Liane Blyn,USA,F,Masters 1,82.19,84,1972,-232.5,235,240,240,175,185,190.5,190.5,207.5,220,-240.5,220,650.5,SBD,Single-ply,1
Norma Nieves,Puerto Rico,F,Masters 1,84.57,84+,1971,210,225,-237.5,225,125,135,145,145,-195,195,-205,195,565,SBD,Single-ply,1
Joni Mach,USA,F,Masters 2,62,63,1965,127.5,135,140,140,67.5,72.5,77.5,77.5,127.5,135,137.5,137.5,355,SBD,Single-ply,1
Tina Crawford,USA,F,Masters 2,64.87,72,1965,135,140,145,145,72.5,-77.5,-77.5,72.5,147.5,152.5,157.5,157.5,375,SBD,Single-ply,1
Jill Arnow,USA,F,Masters 2,82.97,84,1959,135,145,-155,145,102.5,-110,-110,102.5,125,135,145,145,392.5,SBD,Single-ply,1
Rosa Taveras,Puerto Rico,F,Masters 2,78.68,84,1961,-145,145,-152.5,145,75,80,-82.5,80,130,140,-147.5,140,365,SBD,Single-ply,2
Norma Rodríguez,Puerto Rico,F,Masters 3,49.12,52,1949,70,-77.5,77.5,77.5,35,40,-45,40,90,102.5,110,110,227.5,SBD,Single-ply,1
Marie Laurence,USA,F,Masters 4,55.28,57,1942,-40,40,47.5,47.5,30,32.5,35,35,75,80,82.5,82.5,165,SBD,Single-ply,1
Molly Zunker,USA,F,Open,46.82,47,1991,142.5,-150,150,150,75,-77.5,77.5,77.5,142.5,150,-157.5,150,377.5,SBD,Single-ply,2
Ashlee Hafenbrack,USA,F,Open,50.96,52,1988,130,137.5,-142.5,137.5,85,90,95,95,-145,145,150,150,382.5,SBD,Single-ply,1
Adriana Moreno Mena,Costa Rica,F,Open,51.43,52,1976,130,140,-150,140,70,-77.5,-77.5,70,130,-140,140,140,350,SBD,Single-ply,3
Katherine Kasabuske,USA,F,Open,55.07,57,1980,-192.5,-192.5,192.5,192.5,92.5,-97.5,97.5,97.5,175,185,-192.5,185,475,SBD,Single-ply,1
Melanie Ziffle,Canada,F,Open,61.59,63,1983,-180,180,-190,180,107.5,112.5,116,116,170,182.5,-190.5,182.5,478.5,SBD,Single-ply,1
Mariselys Chaparro,Puerto Rico,F,Open,57.37,63,1982,155,165,-170,165,87.5,-92.5,92.5,92.5,147.5,157.5,162.5,162.5,420,SBD,Single-ply,2
Genesse Caldero,Puerto Rico,F,Open,62.9,63,1985,155,-162.5,-162.5,155,90,-95,97.5,97.5,155,-165,-165,155,407.5,SBD,Single-ply,3
Rhaea Stinn,Canada,F,Open,71.54,72,1988,210,217.5,225,225,145,150,155,155,185,197.5,210,210,590,SBD,Single-ply,2
Ladys Burgos,Puerto Rico,F,Open,71.68,72,1989,170,-177.5,177.5,177.5,85,90,-95,90,160,-167.5,170,170,437.5,SBD,Single-ply,3
Lindsey Blystone,USA,F,Open,104.88,84+,1991,167.5,-177.5,187.5,187.5,-90,92.5,-95,92.5,135,155,167.5,167.5,447.5,SBD,Single-ply,2
Kaitlyn Pelitire,USA,F,Sub-Juniors,51.19,52,2000,-137.5,-137.5,137.5,137.5,62.5,67.5,75,75,137.5,-145,-145,137.5,350,SBD,Single-ply,1
Tashaira Gómez,Puerto Rico,F,Sub-Juniors,60.55,63,2000,-125,-125,-125,,65,70,-77.5,70,122.5,132.5,-142.5,132.5,,SBD,Single-ply,DQ
Andrea Flores #1,Puerto Rico,F,Sub-Juniors,59.28,63,1999,135,-137.5,137.5,137.5,67.5,75,80,80,135,147.5,155,155,372.5,SBD,Single-ply,1
Brittany Rabe,USA,F,Sub-Juniors,69.36,72,1998,-172.5,-172.5,172.5,172.5,92.5,-95,-95,92.5,175,-185,-185,175,440,SBD,Single-ply,1
Dallas Cavegn,USA,F,Sub-Juniors,70.97,72,2000,142.5,150,-160,150,80,87.5,92.5,92.5,127.5,145,-155,145,387.5,SBD,Single-ply,2
Melissa Reyes,USA,F,Sub-Juniors,83.95,84,1998,-135,-135,135,135,87.5,95,-100,95,-147.5,-147.5,147.5,147.5,377.5,SBD,Single-ply,1
Nichole Viera,Puerto Rico,F,Sub-Juniors,72.1,84,2000,150,155,-157.5,155,57.5,-65,65,65,147.5,-157.5,-157.5,147.5,367.5,SBD,Single-ply,2
Dakota Irek,USA,F,Sub-Juniors,96.19,84+,1999,-175,-180,-180,,97.5,-102.5,-102.5,97.5,167.5,175,-177.5,175,,SBD,Single-ply,DQ
Carlie Walker,USA,F,Sub-Juniors,141.63,84+,1999,180,190,-197.5,190,122.5,130,135,135,165,175,185,185,510,SBD,Single-ply,1
Erwyn Smith,Guyana,M,Open,87.87,93,1983,232.5,252.5,-262.5,252.5,137.5,142.5,-147.5,142.5,255,272.5,-277.5,272.5,667.5,SBD,Single-ply,3
Karel Mars,Guyana,M,Open,101.6,105,1979,320,332.5,340,340,185,202.5,212.5,212.5,275,300,312.5,312.5,865,SBD,Single-ply,1
Angel Rodríguez #8,Puerto Rico,M,Juniors,52.35,53,1997,110,117.5,-122.5,117.5,65,72.5,-77.5,72.5,130,140,147.5,147.5,337.5,SBD,Single-ply,1
Angel Moreno,USA,M,Juniors,73.79,74,1996,-275,-275,275,275,182.5,187.5,-190,187.5,235,242.5,-247.5,242.5,705,SBD,Single-ply,1
Obryan Rodríguez,Puerto Rico,M,Juniors,72.53,74,1997,212.5,220,-230,220,130,137.5,140,140,-225,225,-230,225,585,SBD,Single-ply,2
Coy Jorden,USA,M,Juniors,82.77,83,1996,-295,-295,295,295,192.5,200,205,205,265,280,-297.5,280,780,SBD,Single-ply,1
Jordan Glenn,USA,M,Juniors,90.3,93,1993,-292.5,292.5,-300,292.5,-215,-215,-215,,292.5,302.5,-320,302.5,,SBD,Single-ply,DQ
Benjamin Nevares,USA,M,Juniors,92.4,93,1996,-305,-305,-305,,235,240,245,245,290,305,-320,305,,SBD,Single-ply,DQ
Edmil A. Santiago,Puerto Rico,M,Juniors,90.73,93,1996,215,225,235,235,145,155,162.5,162.5,215,230,-240,230,627.5,SBD,Single-ply,1
Eric Cordeiro,USA,M,Masters 1,82.34,83,1975,255,-262.5,262.5,262.5,160,-165,165,165,222.5,230,235,235,662.5,SBD,Single-ply,1
Antonio González #1,Puerto Rico,M,Masters 1,86.05,93,1971,-280,-280,-280,,160,-167.5,-170,160,250,265,-275,265,,SBD,Single-ply,DQ
Lawrence Marlon Belfon,Trinidad and Tobago,M,Masters 1,92.08,93,1967,225,240,-250,240,92.5,105,125,125,205,-215,-215,205,570,SBD,Single-ply,1
Adrian Brown,Trinidad and Tobago,M,Masters 1,104.15,105,1975,-300,307.5,317.5,317.5,180,190,-197.5,190,300,312.5,-317.5,312.5,820,SBD,Single-ply,1
Steve Mann #1,USA,M,Masters 1,119.86,120,1975,382.5,402.5,413,413,297.5,312.5,-321,312.5,290,-307.5,-307.5,290,1015.5,SBD,Single-ply,1
Alex Alvarado,Puerto Rico,M,Masters 1,113.54,120,1974,250,257.5,265,265,195,-205,205,205,220,230,-237.5,230,700,SBD,Single-ply,2
Patrick Anderson,USA,M,Masters 1,137.99,120+,1971,295,320,332.5,332.5,235,245,255,255,237.5,260,270,270,857.5,SBD,Single-ply,1
Ángel Sánchez #5,Puerto Rico,M,Masters 1,124.51,120+,1976,305,-317.5,317.5,317.5,215,225,232.5,232.5,245,260,270,270,820,SBD,Single-ply,2
Cruz Rodríguez,Puerto Rico,M,Masters 2,65.3,66,1959,217.5,225,-230,225,147.5,152.5,160,160,180,190,200,200,585,SBD,Single-ply,1
Ronald Walker,US Virgin Islands,M,Masters 2,81.19,83,1959,-182.5,182.5,195,195,-150,-150,-150,,245,-260,-260,245,,SBD,Single-ply,DQ
Thomas Cencich,USA,M,Masters 2,82.82,83,1960,170,-192.5,192.5,192.5,195,-213,-213,195,180,185,192.5,192.5,580,SBD,Single-ply,1
Luis Rojas Pardo,Costa Rica,M,Masters 2,79.33,83,1961,-210,210,-220,210,140,-145,-145,140,210,-222.5,-230,210,560,SBD,Single-ply,2
Richard Johnson #2,USA,M,Masters 2,91.67,93,1963,215,-230,-230,215,120,127.5,-130,127.5,235,250,-260,250,592.5,SBD,Single-ply,1
Ray Baxter-Vonna,USA,M,Masters 2,97.95,105,1958,250,-262.5,270,270,175,182.5,190,190,242.5,-255,-255,242.5,702.5,SBD,Single-ply,1
Luis Ramírez,Mexico,M,Masters 2,111.67,120,1965,250,257.5,270,270,205,212.5,215,215,225,232.5,237.5,237.5,722.5,SBD,Single-ply,1
Randy Earle,USA,M,Masters 2,152.79,120+,1962,305,317.5,-320,317.5,-227.5,230,235,235,230,272.5,285,285,837.5,SBD,Single-ply,1
Isidro César Torres,Puerto Rico,M,Masters 3,73.81,74,1951,137.5,142.5,150,150,115,122.5,127.5,127.5,-145,150,160,160,437.5,SBD,Single-ply,1
Bruce Barry,USA,M,Masters 3,103.96,105,1952,240,-252.5,-252.5,240,-150,-162.5,-170,,-220,-222.5,,,,SBD,Single-ply,DQ
Iván Cancel,Puerto Rico,M,Open,58.42,59,1982,232.5,-238,238,238,-155,155,-157.5,155,220,-227.5,-227.5,220,613,SBD,Single-ply,1
Michael Hafenbrack,USA,M,Open,65.38,66,1984,245,255,-262.5,255,152.5,160,-165,160,242.5,-255,255,255,670,SBD,Single-ply,1
Raul Rivera,Puerto Rico,M,Open,64.84,66,1994,190,200,-212.5,200,117.5,125,130,130,185,195,202.5,202.5,532.5,SBD,Single-ply,3
Christian Serrano,Puerto Rico,M,Open,72.97,74,1995,-215,-215,-215,,-100,120,162.5,162.5,180,200,-230,200,,SBD,Single-ply,DQ
Carlo Melendez,USA,M,Open,72.97,74,1983,247.5,-257.5,262.5,262.5,-175,-175,-180,,225,-235,-235,225,,SBD,Single-ply,DQ
Mauricio Mejia Boza,Costa Rica,M,Open,73.65,74,1981,-230,-230,230,230,160,-170,170,170,225,240,-250,240,640,SBD,Single-ply,1
Adam Ramzy,Canada,M,Open,82.35,83,1990,315,335,345,345,-240,240,245,245,305,315,-320,315,905,SBD,Single-ply,1
Lorenzo Donastorg,US Virgin Islands,M,Open,81.52,83,1983,195,205,-215,205,147.5,155,-160,155,200,-220,-220,200,560,SBD,Single-ply,4
Erik Kasabuske,USA,M,Open,92.47,93,1983,325,340,357.5,357.5,195,210,217.5,217.5,292.5,312.5,-317.5,312.5,887.5,SBD,Single-ply,1
Michael Davis #1,USA,M,Open,92.72,93,1995,307.5,317.5,-332.5,317.5,200,210,217.5,217.5,302.5,310,-325,310,845,SBD,Single-ply,2
Aaron Ziffle,Canada,M,Open,92.96,93,1981,300,310,-320,310,215,222.5,227.5,227.5,-255,255,262.5,262.5,800,SBD,Single-ply,3
Nelson Viera,Puerto Rico,M,Open,92.11,93,1991,245,260,272.5,272.5,180,-190,200.5,200.5,240,255,-272.5,255,728,SBD,Single-ply,4
Luis James,USA,M,Open,103.91,105,1989,275,290,-302.5,290,275,-290,-290,275,275,287.5,-292.5,287.5,852.5,SBD,Single-ply,1
Barrantes,Costa Rica,M,Open,104.65,105,1982,280,-305,310,310,205,-220,-220,205,250,-275,,250,765,SBD,Single-ply,3
Carlos Rivera,Puerto Rico,M,Open,118.62,120,1982,-370,-370,-370,,-270,-270,,,,,,,,SBD,Single-ply,DQ
Carlos Manuel Campos Murillo,Costa Rica,M,Open,118.97,120,1979,325,-372.5,-372.5,325,-215,215,-250,215,-300,300,330,330,870,SBD,Single-ply,2
Blaine Sumner,USA,M,Open,169.09,120+,1987,425,465,-505,465,-355,-355,355,355,305,325,,325,1145,SBD,Single-ply,1
Ryan Stinn,Canada,M,Open,140.91,120+,1981,360,372.5,-385,372.5,270,-280,280,280,270,290,310,310,962.5,SBD,Single-ply,2
Lariel Nieves,Puerto Rico,M,Sub-Juniors,62.52,66,2000,135,142.5,152.5,152.5,65,72.5,80,80,155,-170,-170,155,387.5,SBD,Single-ply,1
Andrew Biggers,USA,M,Sub-Juniors,72.93,74,1998,207.5,215,217.5,217.5,152.5,157.5,160,160,207.5,-217.5,225,225,602.5,SBD,Single-ply,1
Cooper Riehl,USA,M,Sub-Juniors,91.03,93,1999,230,245,-255,245,120,130,137.5,137.5,237.5,-240,257.5,257.5,640,SBD,Single-ply,1
Joseph Humphrey,USA,M,Sub-Juniors,110.56,120,1998,220,225,-227.5,225,-150,150,155,155,-260,-260,-260,,,SBD,Single-ply,DQ
Dylan Erickson,USA,M,Sub-Juniors,123.86,120+,1998,257.5,-270,270,270,157.5,165,170,170,267.5,280,290,290,730,SBD,Single-ply,1
Zachary Dotas,USA,M,Open,73.58,74,1991,255,270,290,290,152.5,165,175,175,255,280,-300,280,745,SBD,Single-ply,1
Adrian Locke,Canada,M,Open,112.6,120,1990,270,287.5,297.5,297.5,175,185,-195,185,265,285,-300,285,767.5,SBD,Single-ply,1
